<svg width="16" height="16" version="1.1" xmlns="http://www.w3.org/2000/svg">
<path d="m8 1c-3.0506 0-5.9194 1.0732-8 3l8 11 3-3.375v-6.6245h4v1.125l1-2.125c-2.081-1.9269-4.949-3-8-3z" fill="#666" opacity=".3"/>
<path class="error" d="m12 6v4l0.25 2h1.5l0.25-2v-4zm0 7v2h2v-2z" fill="#f44336"/>
</svg>
