<?xml version="1.0" encoding="UTF-8" standalone="no"?>
<!-- Created with Inkscape (http://www.inkscape.org/) -->

<svg
   xmlns:dc="http://purl.org/dc/elements/1.1/"
   xmlns:cc="http://creativecommons.org/ns#"
   xmlns:rdf="http://www.w3.org/1999/02/22-rdf-syntax-ns#"
   xmlns:svg="http://www.w3.org/2000/svg"
   xmlns="http://www.w3.org/2000/svg"
   xmlns:xlink="http://www.w3.org/1999/xlink"
   xmlns:sodipodi="http://sodipodi.sourceforge.net/DTD/sodipodi-0.dtd"
   xmlns:inkscape="http://www.inkscape.org/namespaces/inkscape"
   width="86"
   height="36"
   id="svg3642"
   sodipodi:version="0.32"
   inkscape:version="0.92.2 2405546, 2018-03-11"
   sodipodi:docname="alldesktops.svg"
   inkscape:output_extension="org.inkscape.output.svg.inkscape"
   version="1.0"
   enable-background="new">
  <sodipodi:namedview
     id="base"
     pagecolor="#8f9e5f"
     bordercolor="#666666"
     borderopacity="1.0"
     inkscape:pageopacity="0"
     inkscape:pageshadow="2"
     inkscape:zoom="6.2993669"
     inkscape:cx="51.130766"
     inkscape:cy="29.228324"
     inkscape:current-layer="layer1"
     showgrid="true"
     inkscape:grid-bbox="true"
     inkscape:document-units="px"
     inkscape:window-width="1280"
     inkscape:window-height="995"
     inkscape:window-x="0"
     inkscape:window-y="0"
     width="48px"
     height="48px"
     showguides="true"
     inkscape:guide-bbox="true"
     objecttolerance="9"
     gridtolerance="13"
     inkscape:snap-global="false"
     inkscape:snap-nodes="true"
     inkscape:snap-bbox="true"
     inkscape:window-maximized="1"
     inkscape:bbox-nodes="true">
    <inkscape:grid
       visible="true"
       enabled="true"
       id="grid2555"
       type="xygrid" />
    <sodipodi:guide
       orientation="0,1"
       position="22.874999,21.031249"
       id="guide2755"
       inkscape:locked="false" />
  </sodipodi:namedview>
  <defs
     id="defs3644">
    <linearGradient
       id="linearGradient8869">
      <stop
         style="stop-color:#ffffff;stop-opacity:1;"
         offset="0"
         id="stop8871" />
      <stop
         style="stop-color:#ffffff;stop-opacity:0;"
         offset="1"
         id="stop8873" />
    </linearGradient>
    <linearGradient
       id="linearGradient8851">
      <stop
         id="stop8863"
         offset="0"
         style="stop-color:#ffffff;stop-opacity:0;" />
      <stop
         id="stop8865"
         offset="1"
         style="stop-color:#ffffff;stop-opacity:0;" />
    </linearGradient>
    <linearGradient
       id="linearGradient8824">
      <stop
         style="stop-color:#ffffff;stop-opacity:0;"
         offset="0"
         id="stop8826" />
      <stop
         id="stop8841"
         offset="0.33284399"
         style="stop-color:#ffffff;stop-opacity:0;" />
      <stop
         id="stop8839"
         offset="0.56687492"
         style="stop-color:#ffffff;stop-opacity:0.30000001;" />
      <stop
         id="stop8832"
         offset="0.70642203"
         style="stop-color:#ffffff;stop-opacity:1;" />
      <stop
         style="stop-color:#ffffff;stop-opacity:0.27500001;"
         offset="0.80338359"
         id="stop8836" />
      <stop
         style="stop-color:#ffffff;stop-opacity:0;"
         offset="1"
         id="stop8828" />
    </linearGradient>
    <linearGradient
       id="linearGradient9633">
      <stop
         style="stop-color:#ffffff;stop-opacity:0.50331128;"
         offset="0"
         id="stop9635" />
      <stop
         style="stop-color:#ffffff;stop-opacity:0;"
         offset="1"
         id="stop9637" />
    </linearGradient>
    <linearGradient
       id="linearGradient9615">
      <stop
         style="stop-color:#ff1700;stop-opacity:1;"
         offset="0"
         id="stop9617" />
      <stop
         style="stop-color:#b31400;stop-opacity:0.47019866;"
         offset="1"
         id="stop9619" />
    </linearGradient>
    <linearGradient
       id="linearGradient8917">
      <stop
         id="stop8919"
         offset="0"
         style="stop-color:#eea73d;stop-opacity:1;" />
      <stop
         id="stop8921"
         offset="1"
         style="stop-color:#e7842f;stop-opacity:0.01986755;" />
    </linearGradient>
    <linearGradient
       inkscape:collect="always"
       id="linearGradient8888">
      <stop
         style="stop-color:#d87648;stop-opacity:1;"
         offset="0"
         id="stop8890" />
      <stop
         style="stop-color:#d87648;stop-opacity:0;"
         offset="1"
         id="stop8892" />
    </linearGradient>
    <linearGradient
       id="linearGradient8836">
      <stop
         style="stop-color:#000000;stop-opacity:0.58278143;"
         offset="0"
         id="stop8838" />
      <stop
         id="stop8840"
         offset="0.6681416"
         style="stop-color:#000000;stop-opacity:0.22516556;" />
      <stop
         style="stop-color:#000000;stop-opacity:0;"
         offset="1"
         id="stop8842" />
    </linearGradient>
    <linearGradient
       id="linearGradient8797">
      <stop
         id="stop8799"
         offset="0"
         style="stop-color:#000000;stop-opacity:0.22516556;" />
      <stop
         style="stop-color:#000000;stop-opacity:0.09933775;"
         offset="0.6681416"
         id="stop8803" />
      <stop
         id="stop8801"
         offset="1"
         style="stop-color:#000000;stop-opacity:0;" />
    </linearGradient>
    <linearGradient
       id="linearGradient8747">
      <stop
         id="stop8749"
         offset="0"
         style="stop-color:#cfcfcf;stop-opacity:0.17880794;" />
      <stop
         style="stop-color:#cfcfcf;stop-opacity:0.40397352;"
         offset="0.5"
         id="stop8751" />
      <stop
         id="stop8753"
         offset="1"
         style="stop-color:#cfcfcf;stop-opacity:0.54901963;" />
    </linearGradient>
    <linearGradient
       id="linearGradient8733">
      <stop
         style="stop-color:#cfcfcf;stop-opacity:0.09933775;"
         offset="0"
         id="stop8735" />
      <stop
         id="stop8741"
         offset="0.5"
         style="stop-color:#cfcfcf;stop-opacity:0.28476822;" />
      <stop
         style="stop-color:#cfcfcf;stop-opacity:0.11258278;"
         offset="1"
         id="stop8737" />
    </linearGradient>
    <linearGradient
       id="linearGradient8723">
      <stop
         style="stop-color:#000000;stop-opacity:0.46666667;"
         offset="0"
         id="stop8725" />
      <stop
         style="stop-color:#000000;stop-opacity:0;"
         offset="1"
         id="stop8727" />
    </linearGradient>
    <linearGradient
       inkscape:collect="always"
       id="linearGradient3510">
      <stop
         style="stop-color:#00ffff;stop-opacity:1;"
         offset="0"
         id="stop3512" />
      <stop
         style="stop-color:#00ffff;stop-opacity:0;"
         offset="1"
         id="stop3514" />
    </linearGradient>
    <inkscape:perspective
       sodipodi:type="inkscape:persp3d"
       inkscape:vp_x="0 : 58.500004 : 1"
       inkscape:vp_y="0 : 1000 : 0"
       inkscape:vp_z="117 : 58.500004 : 1"
       inkscape:persp3d-origin="58.5 : 39.000003 : 1"
       id="perspective348" />
    <linearGradient
       id="linearGradient3490"
       inkscape:collect="always">
      <stop
         id="stop3493"
         offset="0"
         style="stop-color:#00ffff;stop-opacity:1" />
      <stop
         id="stop3495"
         offset="1"
         style="stop-color:#00ffff;stop-opacity:0;" />
    </linearGradient>
    <linearGradient
       id="linearGradient3484"
       inkscape:collect="always">
      <stop
         id="stop3486"
         offset="0"
         style="stop-color:#00ffff;stop-opacity:1" />
      <stop
         id="stop3488"
         offset="1"
         style="stop-color:#00ffff;stop-opacity:0;" />
    </linearGradient>
    <linearGradient
       id="linearGradient3478">
      <stop
         style="stop-color:#00ffff;stop-opacity:1;"
         offset="0"
         id="stop3480" />
      <stop
         id="stop3492"
         offset="0.5"
         style="stop-color:#00ffff;stop-opacity:1" />
      <stop
         style="stop-color:#00ffff;stop-opacity:0;"
         offset="1"
         id="stop3482" />
    </linearGradient>
    <linearGradient
       inkscape:collect="always"
       id="linearGradient3276">
      <stop
         style="stop-color:#00ffff;stop-opacity:1;"
         offset="0"
         id="stop3278" />
      <stop
         style="stop-color:#00ffff;stop-opacity:0;"
         offset="1"
         id="stop3280" />
    </linearGradient>
    <linearGradient
       inkscape:collect="always"
       id="linearGradient3214">
      <stop
         style="stop-color:#00dbdb;stop-opacity:1;"
         offset="0"
         id="stop3216" />
      <stop
         style="stop-color:#00dbdb;stop-opacity:0;"
         offset="1"
         id="stop3218" />
    </linearGradient>
    <radialGradient
       inkscape:collect="always"
       xlink:href="#linearGradient3478"
       id="radialGradient3623"
       gradientUnits="userSpaceOnUse"
       gradientTransform="matrix(-9.0311161e-8,-1.2307694,1.2307694,-1.1068501e-7,45.461529,37.846143)"
       cx="17.749987"
       cy="19.125006"
       fx="17.749987"
       fy="19.125006"
       r="12.999998" />
    <radialGradient
       inkscape:collect="always"
       xlink:href="#linearGradient3478"
       id="radialGradient3627"
       gradientUnits="userSpaceOnUse"
       gradientTransform="matrix(-1.4675564e-7,-2.0000003,2.0000003,-1.7986314e-7,-20.500029,54.624954)"
       cx="17.749987"
       cy="19.125006"
       fx="17.749987"
       fy="19.125006"
       r="12.999998" />
    <radialGradient
       inkscape:collect="always"
       xlink:href="#linearGradient3478"
       id="radialGradient3629"
       gradientUnits="userSpaceOnUse"
       gradientTransform="matrix(-1.4675564e-7,2.0000003,2.0000003,1.7986314e-7,-35.723925,-2.6250364)"
       cx="17.749987"
       cy="19.125006"
       fx="17.749987"
       fy="19.125006"
       r="12.999998" />
    <linearGradient
       inkscape:collect="always"
       xlink:href="#linearGradient3214"
       id="linearGradient3633"
       gradientUnits="userSpaceOnUse"
       gradientTransform="matrix(3.2500001,0,0,0.3153317,-34.527722,17.055049)"
       x1="10.727588"
       y1="22"
       x2="8"
       y2="22" />
    <radialGradient
       inkscape:collect="always"
       xlink:href="#linearGradient3478"
       id="radialGradient3635"
       gradientUnits="userSpaceOnUse"
       gradientTransform="matrix(-9.0311161e-8,-1.2307694,1.2307694,-1.1068501e-7,45.461529,37.846143)"
       cx="17.749987"
       cy="19.125006"
       fx="17.749987"
       fy="19.125006"
       r="12.999998" />
    <linearGradient
       inkscape:collect="always"
       xlink:href="#linearGradient3214"
       id="linearGradient3639"
       gradientUnits="userSpaceOnUse"
       gradientTransform="matrix(3.2500001,0,0,0.3153317,-34.527726,17.055049)"
       x1="10.818535"
       y1="22"
       x2="8"
       y2="22" />
    <linearGradient
       inkscape:collect="always"
       xlink:href="#linearGradient3276"
       id="linearGradient3641"
       gradientUnits="userSpaceOnUse"
       gradientTransform="matrix(-1.9909214e-2,1.7536553,2.237673e-2,1.2892277,26.35982,-35.736388)"
       x1="24.24637"
       y1="4.4917293"
       x2="24.110586"
       y2="-5.0732274" />
    <linearGradient
       inkscape:collect="always"
       xlink:href="#linearGradient3276"
       id="linearGradient3643"
       gradientUnits="userSpaceOnUse"
       gradientTransform="matrix(0.1800191,0,0,1.6666666,22.087067,3.2726621)"
       x1="24.110588"
       y1="2.7267742"
       x2="24.110586"
       y2="-5.0732274" />
    <linearGradient
       inkscape:collect="always"
       xlink:href="#linearGradient3276"
       id="linearGradient3645"
       gradientUnits="userSpaceOnUse"
       gradientTransform="matrix(0.8920124,0,0,1.025641,56.473254,1.2033086)"
       x1="24.110588"
       y1="2.7267742"
       x2="24.110586"
       y2="-5.0732274" />
    <linearGradient
       inkscape:collect="always"
       xlink:href="#linearGradient3276"
       id="linearGradient3647"
       gradientUnits="userSpaceOnUse"
       gradientTransform="matrix(1.9909214e-2,1.7536553,-2.237673e-2,1.2892277,22.468091,-35.736388)"
       x1="24.24637"
       y1="4.4917293"
       x2="24.110586"
       y2="-5.0732274" />
    <linearGradient
       inkscape:collect="always"
       xlink:href="#linearGradient3276"
       id="linearGradient3649"
       gradientUnits="userSpaceOnUse"
       gradientTransform="matrix(23.787004,0,0,-1.025641,-482.08824,-16.890808)"
       x1="24.110588"
       y1="2.7267742"
       x2="24.110586"
       y2="-5.0732274" />
    <radialGradient
       inkscape:collect="always"
       xlink:href="#linearGradient3484"
       id="radialGradient3651"
       gradientUnits="userSpaceOnUse"
       gradientTransform="matrix(0,1.8514491,-5.8323385,0,-46.751784,-77.980388)"
       cx="34.725983"
       cy="-13.969999"
       fx="34.725983"
       fy="-13.969999"
       r="4.283" />
    <radialGradient
       inkscape:collect="always"
       xlink:href="#linearGradient3490"
       id="radialGradient3653"
       gradientUnits="userSpaceOnUse"
       gradientTransform="matrix(0,-3.0086048,0.1471298,0,28.081961,112.29323)"
       cx="34.725983"
       cy="-13.944211"
       fx="34.725983"
       fy="-13.944211"
       r="4.283" />
    <linearGradient
       inkscape:collect="always"
       xlink:href="#linearGradient3276"
       id="linearGradient3655"
       gradientUnits="userSpaceOnUse"
       gradientTransform="matrix(-1.9909214e-2,1.7536553,2.237673e-2,1.2892277,26.35982,-35.736388)"
       x1="24.24637"
       y1="4.4917293"
       x2="24.110586"
       y2="-5.0732274" />
    <linearGradient
       inkscape:collect="always"
       xlink:href="#linearGradient3276"
       id="linearGradient3657"
       gradientUnits="userSpaceOnUse"
       gradientTransform="matrix(0.1800191,0,0,1.6666666,22.087067,3.2726621)"
       x1="24.110588"
       y1="2.7267742"
       x2="24.110586"
       y2="-5.0732274" />
    <linearGradient
       inkscape:collect="always"
       xlink:href="#linearGradient3276"
       id="linearGradient3659"
       gradientUnits="userSpaceOnUse"
       gradientTransform="matrix(0.8920124,0,0,1.025641,56.473254,1.2033086)"
       x1="24.110588"
       y1="2.7267742"
       x2="24.110586"
       y2="-5.0732274" />
    <linearGradient
       inkscape:collect="always"
       xlink:href="#linearGradient3276"
       id="linearGradient3661"
       gradientUnits="userSpaceOnUse"
       gradientTransform="matrix(1.9909214e-2,1.7536553,-2.237673e-2,1.2892277,22.468091,-35.736388)"
       x1="24.24637"
       y1="4.4917293"
       x2="24.110586"
       y2="-5.0732274" />
    <linearGradient
       inkscape:collect="always"
       xlink:href="#linearGradient3276"
       id="linearGradient3663"
       gradientUnits="userSpaceOnUse"
       gradientTransform="matrix(23.787004,0,0,-1.025641,-482.08824,-16.890808)"
       x1="24.110588"
       y1="2.7267742"
       x2="24.110586"
       y2="-5.0732274" />
    <radialGradient
       inkscape:collect="always"
       xlink:href="#linearGradient3484"
       id="radialGradient3665"
       gradientUnits="userSpaceOnUse"
       gradientTransform="matrix(0,1.8514491,-5.8323385,0,-46.751784,-77.980388)"
       cx="34.725983"
       cy="-13.969999"
       fx="34.725983"
       fy="-13.969999"
       r="4.283" />
    <radialGradient
       inkscape:collect="always"
       xlink:href="#linearGradient3490"
       id="radialGradient3667"
       gradientUnits="userSpaceOnUse"
       gradientTransform="matrix(0,-3.0086048,0.1471298,0,28.081961,112.29323)"
       cx="34.725983"
       cy="-13.944211"
       fx="34.725983"
       fy="-13.944211"
       r="4.283" />
    <radialGradient
       inkscape:collect="always"
       xlink:href="#linearGradient3510"
       id="radialGradient3539"
       gradientUnits="userSpaceOnUse"
       gradientTransform="matrix(0.8563689,0,0,0.7395914,5.8888732,6.6404224)"
       cx="41"
       cy="25.500008"
       fx="41"
       fy="25.500008"
       r="11" />
    <radialGradient
       inkscape:collect="always"
       xlink:href="#linearGradient3510"
       id="radialGradient3549"
       gradientUnits="userSpaceOnUse"
       gradientTransform="matrix(1,0,0,0.8636364,0,3.4772738)"
       cx="41"
       cy="25.500008"
       fx="41"
       fy="25.500008"
       r="11" />
    <radialGradient
       inkscape:collect="always"
       xlink:href="#linearGradient3510"
       id="radialGradient3579"
       gradientUnits="userSpaceOnUse"
       gradientTransform="matrix(1,0,0,0.8636364,0,3.4772738)"
       cx="41"
       cy="25.500008"
       fx="41"
       fy="25.500008"
       r="11" />
    <inkscape:perspective
       id="perspective2523"
       inkscape:persp3d-origin="372.04724 : 350.78739 : 1"
       inkscape:vp_z="744.09448 : 526.18109 : 1"
       inkscape:vp_y="0 : 1000 : 0"
       inkscape:vp_x="0 : 526.18109 : 1"
       sodipodi:type="inkscape:persp3d" />
    <inkscape:perspective
       id="perspective7937"
       inkscape:persp3d-origin="372.04724 : 350.78739 : 1"
       inkscape:vp_z="744.09448 : 526.18109 : 1"
       inkscape:vp_y="0 : 1000 : 0"
       inkscape:vp_x="0 : 526.18109 : 1"
       sodipodi:type="inkscape:persp3d" />
    <inkscape:perspective
       id="perspective8775"
       inkscape:persp3d-origin="372.04724 : 350.78739 : 1"
       inkscape:vp_z="744.09448 : 526.18109 : 1"
       inkscape:vp_y="0 : 1000 : 0"
       inkscape:vp_x="0 : 526.18109 : 1"
       sodipodi:type="inkscape:persp3d" />
    <inkscape:perspective
       id="perspective8814"
       inkscape:persp3d-origin="372.04724 : 350.78739 : 1"
       inkscape:vp_z="744.09448 : 526.18109 : 1"
       inkscape:vp_y="0 : 1000 : 0"
       inkscape:vp_x="0 : 526.18109 : 1"
       sodipodi:type="inkscape:persp3d" />
    <linearGradient
       inkscape:collect="always"
       xlink:href="#linearGradient8723"
       id="linearGradient8878"
       gradientUnits="userSpaceOnUse"
       x1="14.737369"
       y1="3.824563"
       x2="14.737369"
       y2="-14.017539" />
    <linearGradient
       inkscape:collect="always"
       xlink:href="#linearGradient8733"
       id="linearGradient8880"
       gradientUnits="userSpaceOnUse"
       gradientTransform="matrix(1,0,0,0.9131237,-24.975189,9.78085)"
       x1="39.697861"
       y1="-25.829418"
       x2="39.697861"
       y2="-8.0646248" />
    <linearGradient
       inkscape:collect="always"
       xlink:href="#linearGradient8747"
       id="linearGradient8882"
       gradientUnits="userSpaceOnUse"
       gradientTransform="matrix(1,0,0,1.4620086,-37.267844,-2.9550974)"
       x1="39.697861"
       y1="-25.829418"
       x2="39.697861"
       y2="-8.0646248" />
    <linearGradient
       inkscape:collect="always"
       xlink:href="#linearGradient8836"
       id="linearGradient8940"
       gradientUnits="userSpaceOnUse"
       gradientTransform="translate(44.392397,26.042785)"
       x1="14.737369"
       y1="3.824563"
       x2="14.737369"
       y2="-14.017539" />
    <linearGradient
       inkscape:collect="always"
       xlink:href="#linearGradient8733"
       id="linearGradient8942"
       gradientUnits="userSpaceOnUse"
       gradientTransform="matrix(1,0,0,0.9131237,19.417208,35.823635)"
       x1="39.697861"
       y1="-25.829418"
       x2="39.697861"
       y2="-8.0646248" />
    <linearGradient
       inkscape:collect="always"
       xlink:href="#linearGradient8747"
       id="linearGradient8944"
       gradientUnits="userSpaceOnUse"
       gradientTransform="matrix(1,0,0,1.4620086,-11.225059,-47.347494)"
       x1="39.697861"
       y1="-25.829418"
       x2="39.697861"
       y2="-8.0646248" />
    <radialGradient
       inkscape:collect="always"
       xlink:href="#linearGradient8917"
       id="radialGradient8946"
       gradientUnits="userSpaceOnUse"
       gradientTransform="matrix(1,0,0,0.6615385,0,2.1926526)"
       cx="68.589355"
       cy="6.478292"
       fx="68.589355"
       fy="6.478292"
       r="11.490485" />
    <linearGradient
       inkscape:collect="always"
       xlink:href="#linearGradient8797"
       id="linearGradient8948"
       gradientUnits="userSpaceOnUse"
       gradientTransform="translate(16.940233,25.561814)"
       x1="14.737369"
       y1="3.824563"
       x2="14.737369"
       y2="-14.017539" />
    <radialGradient
       inkscape:collect="always"
       xlink:href="#linearGradient8888"
       id="radialGradient8950"
       gradientUnits="userSpaceOnUse"
       gradientTransform="matrix(1,0,0,0.6615385,0,2.1926526)"
       cx="68.589355"
       cy="6.478292"
       fx="68.589355"
       fy="6.478292"
       r="11.490485" />
    <linearGradient
       inkscape:collect="always"
       xlink:href="#linearGradient8733"
       id="linearGradient8952"
       gradientUnits="userSpaceOnUse"
       gradientTransform="matrix(1,0,0,0.9131237,-8.034956,35.342664)"
       x1="39.697861"
       y1="-25.829418"
       x2="39.697861"
       y2="-8.0646248" />
    <linearGradient
       inkscape:collect="always"
       xlink:href="#linearGradient8747"
       id="linearGradient8954"
       gradientUnits="userSpaceOnUse"
       gradientTransform="matrix(1,0,0,1.4620086,-11.70603,-19.89533)"
       x1="39.697861"
       y1="-25.829418"
       x2="39.697861"
       y2="-8.0646248" />
    <linearGradient
       inkscape:collect="always"
       xlink:href="#linearGradient8723"
       id="linearGradient8988"
       gradientUnits="userSpaceOnUse"
       x1="14.737369"
       y1="3.824563"
       x2="14.737369"
       y2="-14.017539" />
    <linearGradient
       inkscape:collect="always"
       xlink:href="#linearGradient8733"
       id="linearGradient8990"
       gradientUnits="userSpaceOnUse"
       gradientTransform="matrix(1,0,0,0.9131237,-24.975189,9.78085)"
       x1="39.697861"
       y1="-25.829418"
       x2="39.697861"
       y2="-8.0646248" />
    <linearGradient
       inkscape:collect="always"
       xlink:href="#linearGradient8747"
       id="linearGradient8992"
       gradientUnits="userSpaceOnUse"
       gradientTransform="matrix(1,0,0,1.4620086,-37.267844,-2.9550974)"
       x1="39.697861"
       y1="-25.829418"
       x2="39.697861"
       y2="-8.0646248" />
    <linearGradient
       inkscape:collect="always"
       xlink:href="#linearGradient8797"
       id="linearGradient8994"
       gradientUnits="userSpaceOnUse"
       gradientTransform="translate(16.940233,25.561814)"
       x1="14.737369"
       y1="3.824563"
       x2="14.737369"
       y2="-14.017539" />
    <radialGradient
       inkscape:collect="always"
       xlink:href="#linearGradient8888"
       id="radialGradient8996"
       gradientUnits="userSpaceOnUse"
       gradientTransform="matrix(1,0,0,0.6615385,0,2.1926526)"
       cx="68.589355"
       cy="6.478292"
       fx="68.589355"
       fy="6.478292"
       r="11.490485" />
    <linearGradient
       inkscape:collect="always"
       xlink:href="#linearGradient8733"
       id="linearGradient8998"
       gradientUnits="userSpaceOnUse"
       gradientTransform="matrix(1,0,0,0.9131237,-8.034956,35.342664)"
       x1="39.697861"
       y1="-25.829418"
       x2="39.697861"
       y2="-8.0646248" />
    <linearGradient
       inkscape:collect="always"
       xlink:href="#linearGradient8747"
       id="linearGradient9000"
       gradientUnits="userSpaceOnUse"
       gradientTransform="matrix(1,0,0,1.4620086,-11.70603,-19.89533)"
       x1="39.697861"
       y1="-25.829418"
       x2="39.697861"
       y2="-8.0646248" />
    <linearGradient
       inkscape:collect="always"
       xlink:href="#linearGradient8723"
       id="linearGradient9002"
       gradientUnits="userSpaceOnUse"
       x1="14.737369"
       y1="3.824563"
       x2="14.737369"
       y2="-14.017539" />
    <linearGradient
       inkscape:collect="always"
       xlink:href="#linearGradient8733"
       id="linearGradient9004"
       gradientUnits="userSpaceOnUse"
       gradientTransform="matrix(1,0,0,0.9131237,-24.975189,9.78085)"
       x1="39.697861"
       y1="-25.829418"
       x2="39.697861"
       y2="-8.0646248" />
    <linearGradient
       inkscape:collect="always"
       xlink:href="#linearGradient8747"
       id="linearGradient9006"
       gradientUnits="userSpaceOnUse"
       gradientTransform="matrix(1,0,0,1.4620086,-37.267844,-2.9550974)"
       x1="39.697861"
       y1="-25.829418"
       x2="39.697861"
       y2="-8.0646248" />
    <linearGradient
       inkscape:collect="always"
       xlink:href="#linearGradient8747"
       id="linearGradient8757"
       gradientUnits="userSpaceOnUse"
       gradientTransform="matrix(0.7258131,0,0,1.061145,-2.8775204,7.7658035)"
       x1="39.697861"
       y1="-25.829418"
       x2="39.697861"
       y2="-8.0646248" />
    <linearGradient
       inkscape:collect="always"
       xlink:href="#linearGradient8733"
       id="linearGradient8760"
       gradientUnits="userSpaceOnUse"
       gradientTransform="matrix(0.7258131,0,0,0.6627571,-28.037971,31.271038)"
       x1="39.697861"
       y1="-25.829418"
       x2="39.697861"
       y2="-8.0646248" />
    <linearGradient
       inkscape:collect="always"
       xlink:href="#linearGradient8723"
       id="linearGradient8763"
       gradientUnits="userSpaceOnUse"
       x1="14.737369"
       y1="3.824563"
       x2="14.737369"
       y2="-14.017539"
       gradientTransform="matrix(0.7258131,0,0,0.7258131,-9.9106519,24.171969)" />
    <radialGradient
       inkscape:collect="always"
       xlink:href="#linearGradient9615"
       id="radialGradient9667"
       gradientUnits="userSpaceOnUse"
       cx="56.303379"
       cy="-8.4593391"
       fx="56.303379"
       fy="-8.4593391"
       r="4.9658641" />
    <radialGradient
       inkscape:collect="always"
       xlink:href="#linearGradient9633"
       id="radialGradient9669"
       gradientUnits="userSpaceOnUse"
       gradientTransform="matrix(1,0,0,0.8761905,0,-0.8011222)"
       cx="53.894794"
       cy="-6.4706011"
       fx="53.894794"
       fy="-6.4706011"
       r="2.3201942" />
    <radialGradient
       inkscape:collect="always"
       xlink:href="#linearGradient9633"
       id="radialGradient9671"
       gradientUnits="userSpaceOnUse"
       gradientTransform="matrix(1,0,0,0.8761905,0,-0.8011222)"
       cx="53.894794"
       cy="-6.4706011"
       fx="53.894794"
       fy="-6.4706011"
       r="2.3201942" />
    <radialGradient
       inkscape:collect="always"
       xlink:href="#linearGradient9633"
       id="radialGradient9673"
       gradientUnits="userSpaceOnUse"
       gradientTransform="matrix(1,0,0,0.8761905,0,-0.8011222)"
       cx="53.894794"
       cy="-6.4706011"
       fx="53.894794"
       fy="-6.4706011"
       r="2.3201942" />
    <radialGradient
       inkscape:collect="always"
       xlink:href="#linearGradient9633"
       id="radialGradient9675"
       gradientUnits="userSpaceOnUse"
       gradientTransform="matrix(1,0,0,0.8761905,0,-0.8011222)"
       cx="53.894794"
       cy="-6.4706011"
       fx="53.894794"
       fy="-6.4706011"
       r="2.3201942" />
    <radialGradient
       inkscape:collect="always"
       xlink:href="#linearGradient9633"
       id="radialGradient9712"
       gradientUnits="userSpaceOnUse"
       gradientTransform="matrix(1,0,0,0.8761905,0,-0.8011222)"
       cx="53.894794"
       cy="-6.4706011"
       fx="53.894794"
       fy="-6.4706011"
       r="2.3201942" />
    <radialGradient
       inkscape:collect="always"
       xlink:href="#linearGradient9633"
       id="radialGradient9714"
       gradientUnits="userSpaceOnUse"
       gradientTransform="matrix(1,0,0,0.8761905,0,-0.8011222)"
       cx="53.894794"
       cy="-6.4706011"
       fx="53.894794"
       fy="-6.4706011"
       r="2.3201942" />
    <radialGradient
       inkscape:collect="always"
       xlink:href="#linearGradient9633"
       id="radialGradient9716"
       gradientUnits="userSpaceOnUse"
       gradientTransform="matrix(1,0,0,0.8761905,0,-0.8011222)"
       cx="53.894794"
       cy="-6.4706011"
       fx="53.894794"
       fy="-6.4706011"
       r="2.3201942" />
    <radialGradient
       inkscape:collect="always"
       xlink:href="#linearGradient9633"
       id="radialGradient9718"
       gradientUnits="userSpaceOnUse"
       gradientTransform="matrix(1,0,0,0.8761905,0,-0.8011222)"
       cx="53.894794"
       cy="-6.4706011"
       fx="53.894794"
       fy="-6.4706011"
       r="2.3201942" />
    <radialGradient
       inkscape:collect="always"
       xlink:href="#linearGradient9633"
       id="radialGradient9720"
       gradientUnits="userSpaceOnUse"
       gradientTransform="matrix(1,0,0,0.8761905,0,-0.8011222)"
       cx="53.894794"
       cy="-6.4706011"
       fx="53.894794"
       fy="-6.4706011"
       r="2.3201942" />
    <radialGradient
       inkscape:collect="always"
       xlink:href="#linearGradient9633"
       id="radialGradient9722"
       gradientUnits="userSpaceOnUse"
       gradientTransform="matrix(1,0,0,0.8761905,0,-0.8011222)"
       cx="53.894794"
       cy="-6.4706011"
       fx="53.894794"
       fy="-6.4706011"
       r="2.3201942" />
    <radialGradient
       inkscape:collect="always"
       xlink:href="#linearGradient9633"
       id="radialGradient9724"
       gradientUnits="userSpaceOnUse"
       gradientTransform="matrix(1,0,0,0.8761905,0,-0.8011222)"
       cx="53.894794"
       cy="-6.4706011"
       fx="53.894794"
       fy="-6.4706011"
       r="2.3201942" />
    <radialGradient
       inkscape:collect="always"
       xlink:href="#linearGradient9633"
       id="radialGradient9726"
       gradientUnits="userSpaceOnUse"
       gradientTransform="matrix(1,0,0,0.8761905,0,-0.8011222)"
       cx="53.894794"
       cy="-6.4706011"
       fx="53.894794"
       fy="-6.4706011"
       r="2.3201942" />
    <radialGradient
       inkscape:collect="always"
       xlink:href="#linearGradient9615"
       id="radialGradient9728"
       gradientUnits="userSpaceOnUse"
       cx="56.303379"
       cy="-8.4593391"
       fx="56.303379"
       fy="-8.4593391"
       r="4.9658641" />
    <radialGradient
       inkscape:collect="always"
       xlink:href="#linearGradient9633"
       id="radialGradient9742"
       gradientUnits="userSpaceOnUse"
       gradientTransform="matrix(1,0,0,0.8761905,0,-0.8011222)"
       cx="53.894794"
       cy="-6.4706011"
       fx="53.894794"
       fy="-6.4706011"
       r="2.3201942" />
    <radialGradient
       inkscape:collect="always"
       xlink:href="#linearGradient9633"
       id="radialGradient9744"
       gradientUnits="userSpaceOnUse"
       gradientTransform="matrix(1,0,0,0.8761905,0,-0.8011222)"
       cx="53.894794"
       cy="-6.4706011"
       fx="53.894794"
       fy="-6.4706011"
       r="2.3201942" />
    <radialGradient
       inkscape:collect="always"
       xlink:href="#linearGradient9633"
       id="radialGradient9746"
       gradientUnits="userSpaceOnUse"
       gradientTransform="matrix(1,0,0,0.8761905,0,-0.8011222)"
       cx="53.894794"
       cy="-6.4706011"
       fx="53.894794"
       fy="-6.4706011"
       r="2.3201942" />
    <radialGradient
       inkscape:collect="always"
       xlink:href="#linearGradient9633"
       id="radialGradient9748"
       gradientUnits="userSpaceOnUse"
       gradientTransform="matrix(1,0,0,0.8761905,0,-0.8011222)"
       cx="53.894794"
       cy="-6.4706011"
       fx="53.894794"
       fy="-6.4706011"
       r="2.3201942" />
    <radialGradient
       inkscape:collect="always"
       xlink:href="#linearGradient9633"
       id="radialGradient9757"
       gradientUnits="userSpaceOnUse"
       gradientTransform="matrix(1,0,0,0.8761905,0,-0.8011222)"
       cx="53.894794"
       cy="-6.4706011"
       fx="53.894794"
       fy="-6.4706011"
       r="2.3201942" />
    <radialGradient
       inkscape:collect="always"
       xlink:href="#linearGradient9633"
       id="radialGradient9759"
       gradientUnits="userSpaceOnUse"
       gradientTransform="matrix(1,0,0,0.8761905,0,-0.8011222)"
       cx="53.894794"
       cy="-6.4706011"
       fx="53.894794"
       fy="-6.4706011"
       r="2.3201942" />
    <radialGradient
       inkscape:collect="always"
       xlink:href="#linearGradient9633"
       id="radialGradient9761"
       gradientUnits="userSpaceOnUse"
       gradientTransform="matrix(1,0,0,0.8761905,0,-0.8011222)"
       cx="53.894794"
       cy="-6.4706011"
       fx="53.894794"
       fy="-6.4706011"
       r="2.3201942" />
    <radialGradient
       inkscape:collect="always"
       xlink:href="#linearGradient9633"
       id="radialGradient9763"
       gradientUnits="userSpaceOnUse"
       gradientTransform="matrix(1,0,0,0.8761905,0,-0.8011222)"
       cx="53.894794"
       cy="-6.4706011"
       fx="53.894794"
       fy="-6.4706011"
       r="2.3201942" />
    <inkscape:perspective
       id="perspective8029"
       inkscape:persp3d-origin="372.04724 : 350.78739 : 1"
       inkscape:vp_z="744.09448 : 526.18109 : 1"
       inkscape:vp_y="0 : 1000 : 0"
       inkscape:vp_x="0 : 526.18109 : 1"
       sodipodi:type="inkscape:persp3d" />
    <radialGradient
       inkscape:collect="always"
       xlink:href="#linearGradient8869"
       id="radialGradient8997"
       gradientUnits="userSpaceOnUse"
       cx="49.784737"
       cy="6.7213597"
       fx="49.784737"
       fy="6.7213597"
       r="2.6295533" />
    <radialGradient
       inkscape:collect="always"
       xlink:href="#linearGradient8869"
       id="radialGradient9009"
       gradientUnits="userSpaceOnUse"
       cx="49.784737"
       cy="6.7213597"
       fx="49.784737"
       fy="6.7213597"
       r="2.6295533" />
    <radialGradient
       r="11.3125"
       fy="11.6875"
       fx="21.6875"
       cy="11.6875"
       cx="21.6875"
       gradientUnits="userSpaceOnUse"
       id="radialGradient9047"
       xlink:href="#linearGradient8851"
       gradientTransform="matrix(0.8021583,0,0,0.8021583,6.690121,-90.030482)" />
    <filter
       y="-0.25"
       x="-0.25"
       height="1.5"
       width="1.5"
       id="filter4167">
      <feGaussianBlur
         result="blur"
         stdDeviation="1"
         in="SourceAlpha"
         id="feGaussianBlur4169" />
      <feColorMatrix
         values="1 0 0 0 0 0 1 0 0 0 0 0 1 0 0 0 0 0 0.5 0 "
         type="matrix"
         result="bluralpha"
         id="feColorMatrix4171" />
      <feOffset
         result="offsetBlur"
         dy="0"
         dx="0"
         in="bluralpha"
         id="feOffset4173" />
      <feMerge
         result="fbSourceGraphic"
         id="feMerge4175">
        <feMergeNode
           in="offsetBlur"
           id="feMergeNode4177" />
        <feMergeNode
           in="SourceGraphic"
           id="feMergeNode4179" />
      </feMerge>
      <feColorMatrix
         id="feColorMatrix4256"
         values="0 0 0 -1 0 0 0 0 -1 0 0 0 0 -1 0 0 0 0 1 0"
         in="fbSourceGraphic"
         result="fbSourceGraphicAlpha" />
      <feGaussianBlur
         result="blur"
         stdDeviation="1"
         in="fbSourceGraphicAlpha"
         id="feGaussianBlur4258" />
      <feColorMatrix
         values="1 0 0 0 0 0 1 0 0 0 0 0 1 0 0 0 0 0 0.3 0 "
         type="matrix"
         result="bluralpha"
         id="feColorMatrix4260" />
      <feOffset
         result="offsetBlur"
         dy="0"
         dx="0"
         in="bluralpha"
         id="feOffset4262" />
      <feMerge
         id="feMerge4264">
        <feMergeNode
           in="offsetBlur"
           id="feMergeNode4266" />
        <feMergeNode
           in="fbSourceGraphic"
           id="feMergeNode4268" />
      </feMerge>
    </filter>
    <radialGradient
       r="11.3125"
       fy="11.6875"
       fx="21.6875"
       cy="11.6875"
       cx="21.6875"
       gradientUnits="userSpaceOnUse"
       id="radialGradient9047-7"
       xlink:href="#linearGradient8851"
       gradientTransform="matrix(0.8021583,0,0,0.8021583,6.690121,-90.030482)" />
  </defs>
  <metadata
     id="metadata3647">
    <rdf:RDF>
      <cc:Work
         rdf:about="">
        <dc:format>image/svg+xml</dc:format>
        <dc:type
           rdf:resource="http://purl.org/dc/dcmitype/StillImage" />
        <dc:title></dc:title>
      </cc:Work>
      <cc:Work
         rdf:about="">
        <dc:format>image/svg+xml</dc:format>
        <dc:type
           rdf:resource="http://purl.org/dc/dcmitype/StillImage" />
      </cc:Work>
    </rdf:RDF>
  </metadata>
  <g
     inkscape:groupmode="layer"
     inkscape:label="Layer 1"
     id="layer1"
     transform="translate(25,-12.000005)"
     style="display:inline">
    <rect
       y="13.200005"
       x="-25"
       height="5.000001"
       width="5.0886946"
       id="hint-stretch-borders"
       style="opacity:1;fill:#008000;fill-opacity:1;stroke:none;stroke-width:0;stroke-miterlimit:4;stroke-dasharray:none;stroke-opacity:1" />
    <g
       id="g1020" />
    <g
       id="active-center"
       transform="matrix(1,0,0,1.0088131,-29.82983,39.769294)">
      <g
         transform="matrix(0.70996406,0.50642594,-0.5697361,0.6346452,103.64035,-78.227749)"
         id="act">
        <rect
           transform="matrix(1,-1.2128806e-5,4.2562065e-4,0.99999991,0,0)"
           style="opacity:1;fill:#ffffff;fill-opacity:0.65882353;stroke-width:0.86135244"
           id="rect1030-5"
           width="0.93304628"
           height="3.9758372"
           x="-9.6600475"
           y="102.91065"
           ry="3.6217502e-06" />
        <rect
           transform="matrix(0.9999013,0.01404959,-0.01518552,0.99988469,0,0)"
           style="opacity:1;fill:#ffffff;fill-opacity:0.65882353;stroke-width:0.85059589"
           id="rect1032-6"
           width="7.0085459"
           height="1.0323305"
           x="-11.055338"
           y="102.01263"
           ry="8.4217515e-07" />
        <rect
           transform="matrix(0.99986016,0.01672302,-0.01214859,0.9999262,0,0)"
           style="opacity:1;fill:#ffffff;fill-opacity:0.65882353;stroke-width:0.85432553"
           id="rect1048-2"
           width="5.0362163"
           height="6.9563842"
           x="-10.363944"
           y="95.10405"
           ry="0" />
      </g>
      <ellipse
         ry="8.9601612"
         rx="9.0744162"
         cy="-19.396711"
         cx="39.827404"
         id="path9039-3"
         style="opacity:0.00100002;fill:#ffffff;fill-opacity:1;stroke:none;stroke-width:0.39854619;stroke-linecap:butt;stroke-linejoin:miter;stroke-miterlimit:4;stroke-dasharray:none;stroke-dashoffset:0;stroke-opacity:1" />
    </g>
    <g
       id="inactive-center"
       transform="translate(-30.973801,56.889017)">
      <g
         transform="matrix(0.70996406,0.50642594,-0.5697361,0.6346452,104.63,-77.633955)"
         id="act-6">
        <rect
           transform="matrix(1,-1.2128806e-5,4.2562065e-4,0.99999991,0,0)"
           style="opacity:1;fill:#ffffff;fill-opacity:0.65882353;stroke-width:0.86135244"
           id="rect1030-5-7"
           width="0.93304628"
           height="3.9758372"
           x="-9.6600475"
           y="102.91065"
           ry="3.6217502e-06" />
        <rect
           transform="matrix(0.9999013,0.01404959,-0.01518552,0.99988469,0,0)"
           style="opacity:1;fill:#ffffff;fill-opacity:0.65882353;stroke-width:0.85059589"
           id="rect1032-6-5"
           width="7.0085459"
           height="1.0323305"
           x="-11.055338"
           y="102.01263"
           ry="8.4217515e-07" />
        <rect
           transform="matrix(0.99986016,0.01672302,-0.01214859,0.9999262,0,0)"
           style="opacity:1;fill:#ffffff;fill-opacity:0.65882353;stroke-width:0.85432553"
           id="rect1048-2-3"
           width="5.0362163"
           height="6.9563842"
           x="-10.363944"
           y="95.10405"
           ry="0" />
      </g>
      <ellipse
         ry="8.9601612"
         rx="9.0744162"
         cy="-18.647413"
         cx="41.211842"
         id="path9039-3-5"
         style="opacity:0.00100002;fill:#ffffff;fill-opacity:1;stroke:none;stroke-width:0.39854619;stroke-linecap:butt;stroke-linejoin:miter;stroke-miterlimit:4;stroke-dasharray:none;stroke-dashoffset:0;stroke-opacity:1" />
    </g>
    <g
       id="pressed-center"
       transform="translate(9.6075548,39.121946)"
       inkscape:label="#pressed-center">
      <g
         transform="matrix(0.70996406,0.50642594,-0.5697361,0.6346452,103.64035,-78.227749)"
         id="act-6-2">
        <rect
           transform="matrix(1,-1.2128806e-5,4.2562065e-4,0.99999991,0,0)"
           style="opacity:1;fill:#ffffff;fill-opacity:1;stroke-width:0.86135244"
           id="rect1030-5-7-9"
           width="0.93304628"
           height="3.9758372"
           x="-9.6600475"
           y="102.91065"
           ry="3.6217502e-06" />
        <rect
           transform="matrix(0.9999013,0.01404959,-0.01518552,0.99988469,0,0)"
           style="opacity:1;fill:#ffffff;fill-opacity:1;stroke-width:0.85059589"
           id="rect1032-6-5-1"
           width="7.0085459"
           height="1.0323305"
           x="-11.055338"
           y="102.01263"
           ry="8.4217515e-07" />
        <rect
           transform="matrix(0.99986016,0.01672302,-0.01214859,0.9999262,0,0)"
           style="opacity:1;fill:#ffffff;fill-opacity:1;stroke-width:0.85432553"
           id="rect1048-2-3-2"
           width="5.0362163"
           height="6.9563842"
           x="-10.363944"
           y="95.10405"
           ry="0" />
      </g>
      <ellipse
         ry="8.9601612"
         rx="9.0744162"
         cy="-19.619196"
         cx="40.583092"
         id="path9039-3-5-7"
         style="opacity:0.00100002;fill:#ffffff;fill-opacity:1;stroke:none;stroke-width:0.39854619;stroke-linecap:butt;stroke-linejoin:miter;stroke-miterlimit:4;stroke-dasharray:none;stroke-dashoffset:0;stroke-opacity:1" />
    </g>
    <g
       style="display:inline"
       id="deactivated-inactive-center"
       transform="translate(-51.445,57.329306)">
      <g
         transform="matrix(0.70996406,0.50642594,-0.5697361,0.6346452,104.63,-77.633955)"
         id="act-6-1">
        <rect
           transform="matrix(1,-1.2128806e-5,4.2562065e-4,0.99999991,0,0)"
           style="opacity:0.6;fill:#ffffff;fill-opacity:0.65882353;stroke-width:0.86135244"
           id="rect1030-5-7-2"
           width="0.93304628"
           height="3.9758372"
           x="-9.6600475"
           y="102.91065"
           ry="3.6217502e-06" />
        <rect
           transform="matrix(0.9999013,0.01404959,-0.01518552,0.99988469,0,0)"
           style="opacity:0.6;fill:#ffffff;fill-opacity:0.65882353;stroke-width:0.85059589"
           id="rect1032-6-5-7"
           width="7.0085459"
           height="1.0323305"
           x="-11.055338"
           y="102.01263"
           ry="8.4217515e-07" />
        <rect
           transform="matrix(0.99986016,0.01672302,-0.01214859,0.9999262,0,0)"
           style="opacity:0.6;fill:#ffffff;fill-opacity:0.65882353;stroke-width:0.85432553"
           id="rect1048-2-3-0"
           width="5.0362163"
           height="6.9563842"
           x="-10.363944"
           y="95.10405"
           ry="0" />
      </g>
      <ellipse
         ry="8.9601612"
         rx="8.955966"
         cy="-19.200186"
         cx="41.330288"
         id="path9039-3-5-9"
         style="opacity:0.00100002;fill:#ffffff;fill-opacity:1;stroke:none;stroke-width:0.39593649;stroke-linecap:butt;stroke-linejoin:miter;stroke-miterlimit:4;stroke-dasharray:none;stroke-dashoffset:0;stroke-opacity:1" />
    </g>
    <g
       style="display:inline"
       id="deactivated-center"
       transform="matrix(1,0,0,1.0088131,-49.744697,39.850224)">
      <g
         transform="matrix(0.70996406,0.50642594,-0.5697361,0.6346452,103.64035,-78.227749)"
         id="act-60">
        <rect
           transform="matrix(1,-1.2128806e-5,4.2562065e-4,0.99999991,0,0)"
           style="opacity:1;fill:#ffffff;fill-opacity:0.65882353;stroke-width:0.86135244"
           id="rect1030-5-6"
           width="0.93304628"
           height="3.9758372"
           x="-9.6600475"
           y="102.91065"
           ry="3.6217502e-06" />
        <rect
           transform="matrix(0.9999013,0.01404959,-0.01518552,0.99988469,0,0)"
           style="opacity:1;fill:#ffffff;fill-opacity:0.65882353;stroke-width:0.85059589"
           id="rect1032-6-2"
           width="7.0085459"
           height="1.0323305"
           x="-11.055338"
           y="102.01263"
           ry="8.4217515e-07" />
        <rect
           transform="matrix(0.99986016,0.01672302,-0.01214859,0.9999262,0,0)"
           style="opacity:1;fill:#ffffff;fill-opacity:0.65882353;stroke-width:0.85432553"
           id="rect1048-2-6"
           width="5.0362163"
           height="6.9563842"
           x="-10.363944"
           y="95.10405"
           ry="0" />
      </g>
      <ellipse
         ry="8.9601612"
         rx="9.0744162"
         cy="-19.396711"
         cx="39.827404"
         id="path9039-3-1"
         style="opacity:0.00100002;fill:#ffffff;fill-opacity:1;stroke:none;stroke-width:0.39854619;stroke-linecap:butt;stroke-linejoin:miter;stroke-miterlimit:4;stroke-dasharray:none;stroke-dashoffset:0;stroke-opacity:1" />
    </g>
  </g>
  <g
     inkscape:groupmode="layer"
     id="layer2"
     inkscape:label="Layer 3"
     style="display:inline" />
  <g
     inkscape:groupmode="layer"
     id="layer3"
     inkscape:label="Layer 2"
     style="display:inline" />
  <g
     inkscape:groupmode="layer"
     id="layer4"
     inkscape:label="Layer 4"
     style="display:inline">
    <g
       id="hover-center"
       transform="translate(10.979351,28.018344)">
      <ellipse
         ry="6.0509219"
         rx="5.9928436"
         cy="-20.306671"
         cx="45.507313"
         id="path1158-6"
         style="display:inline;opacity:1;fill:#ffffff;fill-opacity:1;stroke:#ffffff;stroke-width:0.94011122;stroke-miterlimit:4;stroke-dasharray:none;stroke-opacity:1" />
      <ellipse
         ry="7.8865247"
         rx="7.8538523"
         cy="-20.306673"
         cx="45.507305"
         id="path1158-6-2"
         style="display:inline;opacity:1;fill:#ffffff;fill-opacity:0.00392157;stroke:#ffffff;stroke-width:1.2286725;stroke-miterlimit:4;stroke-dasharray:none;stroke-opacity:0.00392157" />
      <g
         transform="matrix(0.6287989,0.44596846,-0.50460219,0.5588808,79.681077,-87.339709)"
         id="g1130-7"
         style="display:inline">
        <g
           transform="translate(-34.691092,6.4131074)"
           id="g1163-5">
          <rect
             transform="matrix(1,-1.2128806e-5,4.2562065e-4,0.99999991,0,0)"
             style="opacity:1;fill:#000000;fill-opacity:0.58823529;stroke-width:0.86135244"
             id="rect1030-5-75-1-3"
             width="0.93304628"
             height="3.9758372"
             x="59.498867"
             y="96.253113"
             ry="3.6217502e-06" />
          <rect
             transform="matrix(0.9999013,0.01404959,-0.01518552,0.99988469,0,0)"
             style="opacity:1;fill:#000000;fill-opacity:0.58823529;stroke-width:0.85059589"
             id="rect1032-6-9-8-5"
             width="7.0085459"
             height="1.0323305"
             x="57.991703"
             y="94.383293"
             ry="8.4217515e-07" />
          <rect
             transform="matrix(0.99986016,0.01672302,-0.01214859,0.9999262,0,0)"
             style="opacity:1;fill:#000000;fill-opacity:0.58823529;stroke-width:0.85432553"
             id="rect1048-2-2-7-6"
             width="5.0362163"
             height="6.9563842"
             x="58.706867"
             y="87.290039"
             ry="0" />
        </g>
      </g>
    </g>
    <g
       style="display:inline"
       id="hover-inactive-center"
       transform="translate(11.033107,46.040956)">
      <ellipse
         ry="6.0509219"
         rx="5.9928436"
         cy="-20.306671"
         cx="45.507313"
         id="path1158-6-6"
         style="display:inline;opacity:1;fill:#ffffff;fill-opacity:1;stroke:#ffffff;stroke-width:0.94011122;stroke-miterlimit:4;stroke-dasharray:none;stroke-opacity:1" />
      <ellipse
         ry="7.8865247"
         rx="7.8538523"
         cy="-20.306673"
         cx="45.507305"
         id="path1158-6-2-7"
         style="display:inline;opacity:1;fill:#ffffff;fill-opacity:0.00392157;stroke:#ffffff;stroke-width:1.2286725;stroke-miterlimit:4;stroke-dasharray:none;stroke-opacity:0.00392157" />
      <g
         transform="matrix(0.6287989,0.44596846,-0.50460219,0.5588808,79.681077,-87.339709)"
         id="g1130-7-5"
         style="display:inline">
        <g
           transform="translate(-34.691092,6.4131074)"
           id="g1163-5-3">
          <rect
             transform="matrix(1,-1.2128806e-5,4.2562065e-4,0.99999991,0,0)"
             style="opacity:1;fill:#000000;fill-opacity:0.58823529;stroke-width:0.86135244"
             id="rect1030-5-75-1-3-5"
             width="0.93304628"
             height="3.9758372"
             x="59.498867"
             y="96.253113"
             ry="3.6217502e-06" />
          <rect
             transform="matrix(0.9999013,0.01404959,-0.01518552,0.99988469,0,0)"
             style="opacity:1;fill:#000000;fill-opacity:0.58823529;stroke-width:0.85059589"
             id="rect1032-6-9-8-5-6"
             width="7.0085459"
             height="1.0323305"
             x="57.991703"
             y="94.383293"
             ry="8.4217515e-07" />
          <rect
             transform="matrix(0.99986016,0.01672302,-0.01214859,0.9999262,0,0)"
             style="opacity:1;fill:#000000;fill-opacity:0.58823529;stroke-width:0.85432553"
             id="rect1048-2-2-7-6-2"
             width="5.0362163"
             height="6.9563842"
             x="58.706867"
             y="87.290039"
             ry="0" />
        </g>
      </g>
    </g>
  </g>
</svg>
