<svg width="48" height="48" version="1" xmlns="http://www.w3.org/2000/svg">
 <path d="m6 8s-2 0-2 2v28c0 1.108 0.892 2 2 2h36c1.108 0 2-0.892 2-2v-28c0-1.108-0.892-2-2-2h-36z" fill="#57b8ec"/>
 <path d="m44 30.002c-2.636-0.049-5.18 0.983-7.061 2.863-1.88 1.881-2.939 4.451-2.939 7.135h8c0.142 0 0.309-0.033 0.471-0.061 0.878-0.211 1.529-0.994 1.529-1.939v-7.998z" fill="#106796" fill-rule="evenodd"/>
 <path d="m4 38v1c0 1.108 0.892 2 2 2h36c1.108 0 2-0.892 2-2v-1c0 1.108-0.892 2-2 2h-36c-1.108 0-2-0.892-2-2z" opacity=".2"/>
 <path d="m6 8c-1.108 0-2 0.892-2 2v1c0-1.108 0.892-2 2-2h36c1.108 0 2 0.892 2 2v-1c0-1.108-0.892-2-2-2h-36z" fill="#fff" opacity=".1"/>
 <path d="m4 17.998c2.6355 0.0491 5.1798-0.98268 7.0605-2.8633 1.881-1.88 2.94-4.451 2.94-7.1347h-8c-0.14164 0-0.30857 0.03275-0.4707 0.06055-0.8784 0.2113-1.5293 0.9944-1.5293 1.9392v7.998z" fill="#106796" fill-rule="evenodd"/>
</svg>
