<?xml version="1.0" encoding="UTF-8" standalone="no"?>
<svg viewBox="0 0 50 50"
 xmlns="http://www.w3.org/2000/svg" xmlns:xlink="http://www.w3.org/1999/xlink"  version="1.2" baseProfile="tiny">
<title>Qt SVG Document</title>
<desc>Generated with Qt</desc>
<defs>
</defs>
<g fill="none" stroke="black" stroke-width="1" fill-rule="evenodd" stroke-linecap="square" stroke-linejoin="bevel" >

<g fill="#ffffff" fill-opacity="1" stroke="none" transform="matrix(2.95326,0,0,2.95326,-123.519,-35.6996)"
font-family="Fira Sans" font-size="10" font-weight="400" font-style="normal" 
opacity="0" >
<path vector-effect="none" fill-rule="nonzero" d="M50.2899,13.9712 C46.6546,13.9712 43.7077,16.9181 43.7077,20.5534 C43.7077,24.1888 46.6546,27.1357 50.2899,27.1357 C53.9253,27.1357 56.8722,24.1888 56.8722,20.5534 C56.8722,16.9181 53.9253,13.9712 50.2899,13.9712 M50.2899,15.3593 C53.1563,15.3593 55.4841,17.6871 55.4841,20.5534 C55.4841,23.4198 53.1563,25.7476 50.2899,25.7476 C47.4236,25.7476 45.0958,23.4198 45.0958,20.5534 C45.0958,17.6871 47.4236,15.3593 50.2899,15.3593 "/>
</g>

<g fill="#ffffff" fill-opacity="1" stroke="none" transform="matrix(2.16216,0,0,2.16216,-56.2162,6.75676)"
font-family="Fira Sans" font-size="10" font-weight="400" font-style="normal" 
opacity="0" >
<path vector-effect="none" fill-rule="nonzero" d="M49.125,8.4375 C49.125,14.8233 43.9483,20 37.5625,20 C31.1767,20 26,14.8233 26,8.4375 C26,2.05171 31.1767,-3.125 37.5625,-3.125 C43.9483,-3.125 49.125,2.05171 49.125,8.4375 "/>
</g>

<g fill="#ffffff" fill-opacity="1" stroke="none" transform="matrix(2.95326,0,0,2.95326,-123.519,-35.6996)"
font-family="Fira Sans" font-size="10" font-weight="400" font-style="normal" 
opacity="0.882353" >
<path vector-effect="none" fill-rule="nonzero" d="M50.076,17.3735 C49.8297,17.4139 49.7029,17.5353 49.5679,17.6409 L49.14,18.0688 L48.1773,19.0582 L47.3216,19.9675 L46.6263,20.6895 C46.4146,20.908 46.4078,21.2266 46.6263,21.4383 L47.0809,21.8662 C47.2994,22.0779 47.6447,22.0847 47.8564,21.8662 L48.4982,21.1976 L49.4074,20.2349 L50.2899,19.3257 L51.1724,20.2349 L52.0817,21.1976 L52.7235,21.8662 C52.9352,22.0847 53.2805,22.0779 53.499,21.8662 L53.9536,21.4383 C54.1721,21.2266 54.1653,20.908 53.9536,20.6895 L53.2583,19.9675 L52.4026,19.0582 L51.4399,18.0688 L51.012,17.6409 C50.877,17.5353 50.7501,17.4139 50.5039,17.3735 C50.4442,17.3637 50.3652,17.3761 50.2899,17.3735 C50.2147,17.3761 50.1357,17.3637 50.076,17.3735 "/>
</g>

<g fill="none" stroke="#000000" stroke-opacity="1" stroke-width="1" stroke-linecap="square" stroke-linejoin="bevel" transform="matrix(1,0,0,1,0,0)"
font-family="Fira Sans" font-size="10" font-weight="400" font-style="normal" 
>
</g>
</g>
</svg>
