<svg xmlns="http://www.w3.org/2000/svg" width="22" height="22" viewBox="0 0 22 22">
 <defs>
  <style id="current-color-scheme" type="text/css">
   .ColorScheme-Text { color:#666666; } .ColorScheme-Highlight { color:#4285f4; }
  </style>
 </defs>
 <path style="fill:currentColor" class="ColorScheme-Text" d="M 9 1 L 9 3 L 14 3 L 14 1 L 9 1 z M 1 4 L 1 6 L 15 6 L 15 4 L 1 4 z M 2 8 L 2 15 L 7 15 L 7 8 L 2 8 z M 9 8 L 9 13 L 14 13 L 14 8 L 9 8 z" transform="translate(3 3)"/>
</svg>
