<svg xmlns="http://www.w3.org/2000/svg" width="22" height="22" version="1.1">
 <defs>
  <style id="current-color-scheme" type="text/css">
   .ColorScheme-Text { color:#666666; } .ColorScheme-Highlight { color:#4285f4; }
  </style>
 </defs>
 <g transform="matrix(1,0,0,1,3,3)">
  <path style="fill:currentColor" class="ColorScheme-Text" d="M 4 0 C 4 0 3 0 3 1 L 3 15 L 8 12 L 13 15 L 13 1 C 13 1 13 0 12 0 L 4 0 z M 5 5 L 11 5 L 11 7 L 5 7 L 5 5 z"/>
 </g>
</svg>
