<svg xmlns="http://www.w3.org/2000/svg" width="22" height="22" version="1.1">
 <defs>
  <style id="current-color-scheme" type="text/css">
   .ColorScheme-Text { color:#666666; } .ColorScheme-Highlight { color:#4285f4; }
  </style>
 </defs>
 <g transform="translate(3,3)">
  <path style="fill:currentColor" class="ColorScheme-Text" d="M 3,4 V 6 H 1 V 8 H 2 V 10 H 4 V 12 H 8 V 10 H 6 V 6 H 8 V 4 Z M 9,4 V 12 H 15 V 4 Z"/>
 </g>
</svg>
