<svg xmlns="http://www.w3.org/2000/svg" width="22" height="22" version="1.1">
 <defs>
  <style id="current-color-scheme" type="text/css">
   .ColorScheme-Text { color:#666666; } .ColorScheme-Highlight { color:#4285f4; }
  </style>
 </defs>
 <g transform="translate(3,3)">
  <path style="fill:currentColor" class="ColorScheme-Text" d="M 3,1 C 1,1 1,3 1,3 V 15 H 8 V 13 H 3 V 5 H 13 V 8 H 15 V 3 C 15,1 13,1 13,1 Z M 12,9 V 11 H 9 V 13 H 12 V 15 L 15,12 Z"/>
 </g>
</svg>
