<svg xmlns="http://www.w3.org/2000/svg" width="22" height="22" version="1.1">
 <defs>
  <style id="current-color-scheme" type="text/css">
   .ColorScheme-Text { color:#666666; } .ColorScheme-Highlight { color:#4285f4; }
  </style>
 </defs>
 <g transform="translate(3,3)">
  <path style="fill:currentColor" class="ColorScheme-Text" d="M 1.5 0 A 1.5 1.5 0 0 0 0 1.5 A 1.5 1.5 0 0 0 1.5 3 A 1.5 1.5 0 0 0 3 1.5 A 1.5 1.5 0 0 0 1.5 0 z M 14.5 0 A 1.5 1.5 0 0 0 13 1.5 A 1.5 1.5 0 0 0 14.5 3 A 1.5 1.5 0 0 0 16 1.5 A 1.5 1.5 0 0 0 14.5 0 z M 12.785 2.5684 L 8.9395 6.7559 L 9.6895 7.4434 L 13.535 3.2559 L 12.785 2.5684 z M 3.2227 2.6309 L 2.4727 3.3184 L 6.2812 7.4199 L 7.0352 6.7246 L 3.2227 2.6309 z M 8 7 A 1.5 1.5 0 0 0 6.5 8.5 A 1.5 1.5 0 0 0 8 10 A 1.5 1.5 0 0 0 9.5 8.5 A 1.5 1.5 0 0 0 8 7 z M 7.5 10.443 L 7.5 12.568 L 8.5 12.568 L 8.5 10.443 L 7.5 10.443 z M 8 13 A 1.5 1.5 0 0 0 6.5 14.5 A 1.5 1.5 0 0 0 8 16 A 1.5 1.5 0 0 0 9.5 14.5 A 1.5 1.5 0 0 0 8 13 z"/>
 </g>
</svg>
