<svg width="22" height="22" version="1.1" xmlns="http://www.w3.org/2000/svg">
<defs>
<style id="current-color-scheme" type="text/css">.ColorScheme-Text { color:#444444; } .ColorScheme-Highlight { color:#4285f4; } .ColorScheme-NeutralText { color:#ff9800; } .ColorScheme-PositiveText { color:#4caf50; } .ColorScheme-NegativeText { color:#f44336; }</style>
</defs>
<path class="ColorScheme-Text" d="m16.232 4.9609-2.3262 2.5312 0.70703 0.70703 2.3555-2.5605zm-12.232 0.039062v13h13v-2h-11v-1h0.00586c0.87508-4.7e-4 2.3438 0 2.3438 0l0.15039-0.14844 2.3652-2.5723-0.70703-0.70703-2.2305 2.4277h-1.9277v-9zm9.2285 3.2285-2.3926 2.6074 0.70703 0.70703 2.3945-2.6055z" fill="#666"/>
</svg>
