<svg xmlns="http://www.w3.org/2000/svg" width="22" height="22" version="1.1">
 <defs>
  <style id="current-color-scheme" type="text/css">
   .ColorScheme-Text { color:#666666; } .ColorScheme-Highlight { color:#4285f4; }
  </style>
 </defs>
 <g transform="translate(3,3)">
  <path style="fill:currentColor" class="ColorScheme-Text" d="M 13,1 H 3 V 15 H 13 V 13 H 5 V 3 H 13 Z M 10,5 6,8 10,11 V 9 H 14 V 7 H 10 Z"/>
 </g>
</svg>
