<svg xmlns="http://www.w3.org/2000/svg" width="22" height="22" version="1.1">
 <defs>
  <style id="current-color-scheme" type="text/css">
   .ColorScheme-Text { color:#666666; } .ColorScheme-Highlight { color:#4285f4; }
  </style>
 </defs>
 <g transform="translate(3,3)">
  <path style="fill:currentColor" class="ColorScheme-Text" d="M 7,1.5 V 4 H 9.5 C 12.5,4 14.5,6 14.5,9 14.5,12.6 10.5,14 10.5,14 10.5,14 12,11.8 12,10.5 12,9.2 10.5,8 9,8 H 7 V 10.5 L 0.5,6 Z"/>
 </g>
</svg>
