<svg width="22" height="22" version="1.1" xmlns="http://www.w3.org/2000/svg">
<defs>
<style id="current-color-scheme" type="text/css">.ColorScheme-Text { color:#444444; } .ColorScheme-Highlight { color:#4285f4; } .ColorScheme-NeutralText { color:#ff9800; } .ColorScheme-PositiveText { color:#4caf50; } .ColorScheme-NegativeText { color:#f44336; }</style>
</defs>
<path class="ColorScheme-Text" d="m7 14v5l3-2v-3z" fill="#666"/>
<path class="ColorScheme-Text" d="m10 4c-3.3137 0-6 2.6863-6 6 0 3.314 2.6863 6 6 6v-2c-2.2091 0-4-1.7909-4-4s1.7909-4 4-4c2.209 0 4 1.7909 4 4 0 1.1481-0.494 2.2408-1.355 3h2.55c0.527-0.912 0.805-1.9467 0.805-3 0-3.3137-2.686-6-6-6zm-0.0508 3c-1.637 0.0277-2.9494 1.3628-2.9492 3 0 1.6569 1.3431 3 3 3s3-1.3431 3-3-1.3431-3-3-3c-0.0169-1e-4 -0.0339-1e-4 -0.0508 0z" fill="#666"/>
<path class="ColorScheme-Text" d="m17 13-3 3-2-2-1 1 3 3 4-4z" fill="#666"/>
</svg>
