<svg xmlns="http://www.w3.org/2000/svg" width="22" height="22" viewBox="0 0 22 22">
 <defs>
  <style id="current-color-scheme" type="text/css">
   .ColorScheme-Text { color:#666666; } .ColorScheme-Highlight { color:#4285f4; }
  </style>
 </defs>
 <path style="fill:currentColor" class="ColorScheme-Text" d="M 6 0.0390625 L 6 1.171875 C 5.0228 1.313675 4.1907094 1.5690031 3.5371094 1.9707031 C 2.5266094 2.5856031 2.0214844 3.5287813 2.0214844 4.8007812 C 2.0168844 6.9960812 3.579 7.7194656 6 8.3847656 L 6 13.376953 C 4.8273 13.277953 3.7551469 13.056266 2.6230469 12.572266 L 2 13.929688 C 2.5645 14.230688 3.3272625 14.491844 4.2890625 14.714844 C 4.8332625 14.836844 5.4003 14.91475 6 14.96875 L 6 16.039062 L 9 16.039062 L 9 14.921875 C 10.997 14.636875 12.979984 13.718422 12.958984 11.232422 C 12.888984 9.4037218 11.756 8.7248594 9 7.7558594 L 9 2.8027344 C 9.9033 2.9234344 11.001609 3.1749562 12.224609 3.7851562 L 13 2.2421875 C 12.449 1.9466875 11.168516 1.4757813 10.353516 1.3007812 C 9.9195152 1.2081812 9.467 1.1451625 9 1.1015625 L 9 0.0390625 L 6 0.0390625 z M 6 2.7988281 L 6 6.796875 C 4.773 6.362475 3.6429814 5.7037687 3.6757812 4.6054688 C 3.6161813 3.5641688 4.6802 3.0146281 6 2.7988281 z M 9 9.25 C 10.281 9.6986 11.319875 10.285453 11.296875 11.314453 C 11.257875 12.710453 10.165 13.197281 9 13.363281 L 9 9.25 z" transform="translate(3 3)"/>
</svg>
