<svg xmlns="http://www.w3.org/2000/svg" width="22" height="22" version="1.1">
 <defs>
  <style id="current-color-scheme" type="text/css">
   .ColorScheme-Text { color:#666666; } .ColorScheme-Highlight { color:#4285f4; }
  </style>
 </defs>
 <g transform="translate(3,3)">
  <path style="fill:currentColor" class="ColorScheme-Text" d="M 6,1 1,15 H 3.5 L 4.5625,12 H 9 V 8 H 10.641 L 8,1 Z M 7,5 8.75,10 H 5.25 Z M 10,9 C 10,9 10,15 10,15 L 14,12 Z"/>
 </g>
</svg>
