<svg xmlns="http://www.w3.org/2000/svg" width="22" height="22" version="1.1">
 <defs>
  <style id="current-color-scheme" type="text/css">
   .ColorScheme-Text { color:#666666; } .ColorScheme-Highlight { color:#4285f4; }
  </style>
 </defs>
 <g transform="translate(3,3)">
  <path style="fill:currentColor" class="ColorScheme-Text" d="M 3,2 C 2,2 2,3 2,3 V 7 H 4 V 4 H 7 V 2 Z M 12,9 V 12 H 9 V 14 H 13 C 14,14 14,13 14,13 V 9 Z M 2,8 V 14 H 8 V 8 Z M 11,2 V 4 H 8 V 6 H 11 V 8 L 14,5 Z"/>
 </g>
</svg>
