<svg width="18" height="18" version="1.1" xmlns="http://www.w3.org/2000/svg">
<defs>
<style id="current-color-scheme" type="text/css">.ColorScheme-Text { color:#444444; } .ColorScheme-Highlight { color:#4285f4; }</style>
</defs>
<path class="ColorScheme-Text" d="m9 1.5-4.5 6.5h2.5v6h4v-6h2.5zm-7 13.5v2h14v-2z" fill="#666"/>
</svg>
