<svg width="18" height="18" version="1.1" xmlns="http://www.w3.org/2000/svg">
<defs>
<style id="current-color-scheme" type="text/css">.ColorScheme-Text { color:#444444; } .ColorScheme-Highlight { color:#4285f4; }</style>
</defs>
<path class="ColorScheme-Text" d="m2 2v9h4v-5h5v-4zm5 5v9h9v-9zm4.5 1s1.5 0 1.5 1.5v1.5h0.5c0.5 0 0.5 0.5 0.5 0.5v3s0 0.5-0.5 0.5h-4c-0.5 0-0.5-0.5-0.5-0.5v-3s0-0.5 0.5-0.5h0.5v-1.5c0-1.5 1.5-1.5 1.5-1.5zm0 1c-0.5 0-0.5 0.5-0.5 0.5v1.5h1v-1.5s0-0.5-0.5-0.5z" fill="#666"/>
</svg>
