<svg width="18" height="18" version="1.1" xmlns="http://www.w3.org/2000/svg">
<defs>
<style id="current-color-scheme" type="text/css">.ColorScheme-Text { color:#444444; } .ColorScheme-Highlight { color:#4285f4; }</style>
</defs>
<path class="ColorScheme-Text" d="M 13.292,4 4,13.292 V 14 H 4.708 L 14,4.708 V 4 Z" fill="#666"/>
<path class="ColorScheme-Text" d="m1 12h5v5h-5zm11-11h5v5h-5z" fill="#666"/>
</svg>
