<svg width="18" height="18" version="1.1" xmlns="http://www.w3.org/2000/svg">
<defs>
<style id="current-color-scheme" type="text/css">.ColorScheme-Text { color:#444444; } .ColorScheme-Highlight { color:#4285f4; }</style>
</defs>
<path class="ColorScheme-Text" d="m2 1v2h-0.5c-0.5 0-0.5 0.5-0.5 0.5s0 0.5 0.5 0.5h0.5v2h4v-5zm9 0v5h4v-2h0.5c0.5 0 0.5-0.5 0.5-0.5s0-0.5-0.5-0.5h-0.5v-2zm-3 5v2h-2l2.5 3 2.5-3h-2v-2zm-2 6v2h-4.5c-0.5 0-0.5 0.5-0.5 0.5s0 0.5 0.5 0.5h4.5v2h5v-2h4.5c0.5 0 0.5-0.5 0.5-0.5s0-0.5-0.5-0.5h-4.5v-2z" fill="#666"/>
</svg>
