<svg width="18" height="18" version="1.1" xmlns="http://www.w3.org/2000/svg">
<defs>
<style id="current-color-scheme" type="text/css">.ColorScheme-Text { color:#444444; } .ColorScheme-Highlight { color:#4285f4; }</style>
</defs>
<path class="ColorScheme-Text" d="m3 5h1v8h-1zm2 9h8v1h-8zm9-9h1v8h-1zm-9-2h8v1h-8zm-3 10h3v3h-3zm11 0h3v3h-3zm-11-11h3v3h-3zm11 0h3v3h-3z" fill="#666"/>
<path class="ColorScheme-Text" d="m6 6h6v6h-6z" fill="#666" opacity=".3"/>
</svg>
