<svg width="18" height="18" version="1.1" xmlns="http://www.w3.org/2000/svg">
<defs>
<style id="current-color-scheme" type="text/css">.ColorScheme-Text { color:#444444; } .ColorScheme-Highlight { color:#4285f4; }</style>
</defs>
<path class="ColorScheme-Text" d="m1 13c4 0 3-3 8-3s4 3 8 3v2c-5 0-3-3-8-3s-3 3-8 3z" fill="#666"/>
<path class="ColorScheme-Text" d="m17 5c-4 0-3 3-8 3s-4-3-8-3v-2c5 0 3 3 8 3s3-3 8-3z" fill="#666"/>
</svg>
