<svg width="18" height="18" version="1.1" xmlns="http://www.w3.org/2000/svg">
<defs>
<style id="current-color-scheme" type="text/css">.ColorScheme-Text { color:#444444; } .ColorScheme-Highlight { color:#4285f4; }</style>
</defs>
<path class="ColorScheme-Text" d="m8 15v-8l-3.5 3.5-1.5-1.5 6-6 6 6-1.5 1.5-3.5-3.5v8z" fill="#666"/>
</svg>
