<svg width="18" height="18" version="1.1" xmlns="http://www.w3.org/2000/svg">
<defs>
<style id="current-color-scheme" type="text/css">.ColorScheme-Text { color:#444444; } .ColorScheme-Highlight { color:#4285f4; }</style>
</defs>
<path class="ColorScheme-Text" d="m9.5 14.5c0 0.276-0.2239 0.5-0.5 0.5s-0.5-0.224-0.5-0.5 0.2239-0.5 0.5-0.5 0.5 0.224 0.5 0.5zm-2.5-1.5-4 1.5 4 1.5zm4 0v3l4-1.5zm2-11v10h1v-5h1.5c0.5 0 0.5 0.5 0.5 0.5v4.5h1v-5s0-1-1-1h-2v-4zm-3 0v2h-1v1h1v6c0 1 1 1 1 1h1v-1h-1v-6h1v-1h-1v-2zm-7 4v6h1v-5h1.5c0.5 0 0.5 0.5 0.5 0.5v4.5h1v-5s0-1-1-1zm-2-2h1v1h-1zm0 2h1v6h-1z" fill="#666"/>
</svg>
