<svg width="18" height="18" version="1.1" xmlns="http://www.w3.org/2000/svg">
<defs>
<style id="current-color-scheme" type="text/css">.ColorScheme-Text { color:#444444; } .ColorScheme-Highlight { color:#4285f4; }</style>
</defs>
<path class="ColorScheme-Text" d="m9 9v1h2v4h1v-4h2v-1zm-8-7v2h4v8h2v-8h4v-2zm12-1v1h3v14h-14v-10h-1v11h16v-16z" fill="#666"/>
</svg>
