<svg width="18" height="18" version="1.1" xmlns="http://www.w3.org/2000/svg">
<defs>
<style id="current-color-scheme" type="text/css">.ColorScheme-Text { color:#444444; } .ColorScheme-Highlight { color:#4285f4; }</style>
</defs>
<path class="ColorScheme-Text" d="m3 2v11h-2l3 4 3-4h-2v-11zm5 10v1h2v3h-2v1h5c2 0 2-2.5 2-2.5s0-2.5-2-2.5zm3 1h1.5c1.5 0 1.5 1.5 1.5 1.5s0 1.5-1.5 1.5h-1.5zm-1.5-9s-0.5 0-0.5 0.5 0.5 0.5 0.5 0.5h3l-1.5 1.25v0.75h-3.5s-0.5 0-0.5 0.5 0.5 0.5 0.5 0.5h3.5v2h-1.5s-0.5 0-0.5 0.5 0.5 0.5 0.5 0.5h1.5s1 0 1-1v-2h3.5s0.5 0 0.5-0.5-0.5-0.5-0.5-0.5h-3.5v-0.25s2-1.25 2-1.75c0-1-1-1-1-1zm1-3c-0.5 0-0.5 0.5-0.5 0.5v0.5h-2.5c-0.5 0-0.5 0.5-0.5 0.5v1s0 0.5 0.5 0.5 0.5-0.5 0.5-0.5v-0.5h7v0.5s0 0.5 0.5 0.5 0.5-0.5 0.5-0.5v-1s0-0.5-0.5-0.5h-4.5v-0.5s0-0.5-0.5-0.5z" fill="#666"/>
</svg>
