<svg xmlns="http://www.w3.org/2000/svg" width="16" height="16" version="1.1">
 <defs>
  <style id="current-color-scheme" type="text/css">
   .ColorScheme-Text { color:#666666; } .ColorScheme-Highlight { color:#4285f4; }
  </style>
 </defs>
 <path style="fill:currentColor" class="ColorScheme-Text" d="M 8,0 5,4 H 7 V 7 H 4 V 5 L 0,8 4,11 V 9 H 7 V 12 H 5 L 8,16 11,12 H 9 V 9 H 12 V 11 L 16,8 12,5 V 7 H 9 V 4 H 11 Z"/>
</svg>
