<svg xmlns="http://www.w3.org/2000/svg" width="16" height="16" viewBox="0 0 16 16">
 <defs>
  <style id="current-color-scheme" type="text/css">
   .ColorScheme-Text { color:#666666; } .ColorScheme-Highlight { color:#4285f4; }
  </style>
 </defs>
 <path style="fill:currentColor" class="ColorScheme-Text" d="M 0 4 L 0 12 L 2 12 L 2 8 L 2 4 L 0 4 z M 2 8 L 9 12 L 9 8 L 9 4 L 2 8 z M 9 8 L 16 12 L 16 4 L 9 8 z"/>
</svg>
