<svg xmlns="http://www.w3.org/2000/svg" width="16" height="16" version="1.1">
 <defs>
  <style id="current-color-scheme" type="text/css">
   .ColorScheme-Text { color:#666666; } .ColorScheme-Highlight { color:#4285f4; }
  </style>
 </defs>
 <path style="fill:currentColor" class="ColorScheme-Text" d="M 2,12 H 14 V 13 H 2 Z"/>
 <path style="fill:currentColor" class="ColorScheme-Text" d="M 5,8 H 11 V 14 H 5 Z M 16,12.5 A 1.5,1.5 0 0 1 14.5,14 1.5,1.5 0 0 1 13,12.5 1.5,1.5 0 0 1 14.5,11 1.5,1.5 0 0 1 16,12.5 Z M 3,12.5 A 1.5,1.5 0 0 1 1.5,14 1.5,1.5 0 0 1 0,12.5 1.5,1.5 0 0 1 1.5,11 1.5,1.5 0 0 1 3,12.5 Z"/>
 <path style="fill:currentColor" class="ColorScheme-Text" d="M 0,2.5 V 3.5 C 0,7.932 3.568,11.5 8,11.5 12.432,11.5 16,7.932 16,3.5 V 2.5 C 16,2 15.5,2 15.5,2 15.5,2 15,2 15,2.5 V 3.5 C 15,7.378 11.878,10.5 8,10.5 4.122,10.5 1,7.378 1,3.5 V 2.5 C 1,2 0.5,2 0.5,2 0.5,2 0,2 0,2.5 Z"/>
</svg>
