<svg xmlns="http://www.w3.org/2000/svg" width="16" height="16" version="1.1">
 <defs>
  <style id="current-color-scheme" type="text/css">
   .ColorScheme-Text { color:#666666; } .ColorScheme-Highlight { color:#4285f4; }
  </style>
 </defs>
 <path style="fill:currentColor" class="ColorScheme-Text" d="M 5.5,0 A 5.5,5.5 0 0 0 0,5.5 5.5,5.5 0 0 0 5.5,11 5.5,5.5 0 0 0 11,5.5 5.5,5.5 0 0 0 5.5,0 Z M 5.5,1 A 4.5,4.5 0 0 1 10,5.5 4.5,4.5 0 0 1 5.5,10 4.5,4.5 0 0 1 1,5.5 4.5,4.5 0 0 1 5.5,1 Z M 5,5 V 9 H 6 V 6 H 9 V 5 Z M 12,5 V 6 H 14 V 14 H 6 V 12 H 5 V 15 H 15 V 5 Z"/>
</svg>
