<svg xmlns="http://www.w3.org/2000/svg" width="16" height="16" version="1.1">
 <defs>
  <style id="current-color-scheme" type="text/css">
   .ColorScheme-Text { color:#666666; } .ColorScheme-Highlight { color:#4285f4; }
  </style>
 </defs>
 <path style="fill:currentColor" class="ColorScheme-Text" d="M 6.5,1 C 6.5,1 5,1 5,2.5 V 4 H 2 C 1,4 1,5 1,5 V 8 H 2.5 C 4,8 4,9.5 4,9.5 4,9.5 4,11 2.5,11 H 1 V 14 C 1,15 2,15 2,15 H 5 V 14 C 5,12 6.5,12 6.5,12 6.5,12 8,12 8,14 V 15 H 11 C 12,15 12,14 12,14 V 11 H 13.5 C 15,11 15,9.5 15,9.5 15,9.5 15,8 13.5,8 H 12 V 5 C 12,4 11,4 11,4 H 8 V 2.5 C 8,1 6.5,1 6.5,1 Z"/>
</svg>
