<svg xmlns="http://www.w3.org/2000/svg" width="16" height="16" version="1.1">
 <defs>
  <style id="current-color-scheme" type="text/css">
   .ColorScheme-Text { color:#666666; } .ColorScheme-Highlight { color:#4285f4; }
  </style>
 </defs>
 <path style="fill:currentColor" class="ColorScheme-Text" d="M 5,1 C 1,1 1,5 1,5 V 15 H 5 V 5 H 15 V 1 Z"/>
 <path style="opacity:0.3;fill:currentColor" class="ColorScheme-Text" d="M 5,5 H 15 V 15 H 5 Z"/>
</svg>
