<svg xmlns="http://www.w3.org/2000/svg" width="16" height="16" version="1.1">
 <defs>
  <style id="current-color-scheme" type="text/css">
   .ColorScheme-Text { color:#666666; } .ColorScheme-Highlight { color:#4285f4; }
  </style>
 </defs>
 <path style="fill:currentColor" class="ColorScheme-Text" d="M 8,5 H 9 V 13 H 8 Z M 1,5 H 2 V 13 H 1 Z M 10,10 V 11.414 L 11.586,13 10,14.586 V 16 H 11.414 L 13,14.414 14.586,16 H 16 V 14.586 L 14.414,13 16,11.414 V 10 H 14.586 L 13,11.586 11.414,10 Z M 1,1 V 4 L 2,3 H 4 V 9 L 3,10 H 7 L 6,9 V 3 H 8 L 9,4 V 1 Z"/>
 <path style="opacity:0.3;fill:currentColor" class="ColorScheme-Text" d="M 3,12 H 7 V 13 H 3 Z"/>
</svg>
