<svg width="16" height="16" version="1.1" xmlns="http://www.w3.org/2000/svg">
<defs>
<style id="current-color-scheme" type="text/css">.ColorScheme-Text { color:#444444; } .ColorScheme-Highlight { color:#4285f4; } .ColorScheme-NeutralText { color:#ff9800; } .ColorScheme-PositiveText { color:#4caf50; } .ColorScheme-NegativeText { color:#f44336; }</style>
</defs>
<path class="ColorScheme-Text" d="m8 1-8 4h2v2h1v6h-1v2h1 7v-2h-1v-6h2v3h2v-3h1v-2h2l-8-4zm-3 6h2v6h-2v-6zm8 4v2h-2v1h2v2h1v-2h2v-1h-2v-2h-1z" fill="#666"/>
</svg>
