<svg xmlns="http://www.w3.org/2000/svg" width="16" height="16" version="1.1">
 <defs>
  <style id="current-color-scheme" type="text/css">
   .ColorScheme-Text { color:#666666; } .ColorScheme-Highlight { color:#4285f4; }
  </style>
 </defs>
 <path style="fill:currentColor" class="ColorScheme-Text" d="M 9,2 V 4 H 12 V 7 H 14 V 3 C 14,3 14,2 13,2 Z M 2,9 V 13 C 2,13 2,14 3,14 H 7 V 12 H 4 V 9 Z M 10,8 V 11 H 8 L 11,14 14,11 H 12 V 8 Z M 2,2 V 8 H 8 V 2 Z"/>
</svg>
