<svg xmlns="http://www.w3.org/2000/svg" width="16" height="16" version="1.1">
 <defs>
  <style id="current-color-scheme" type="text/css">
   .ColorScheme-Text { color:#666666; } .ColorScheme-Highlight { color:#4285f4; }
  </style>
 </defs>
 <path style="fill:currentColor" class="ColorScheme-Text" d="M 4 0 C 2.892 0 2 0.892 2 2 L 2 14 C 2 15.108 2.892 16 4 16 L 12 16 C 13.108 16 14 15.108 14 14 L 14 2 C 14 0.892 13.108 0 12 0 L 4 0 z M 4 2 L 12 2 L 12 10 L 4 10 L 4 2 z M 8 11.75 A 1.25 1.25 0 0 1 9.25 13 A 1.25 1.25 0 0 1 8 14.25 A 1.25 1.25 0 0 1 6.75 13 A 1.25 1.25 0 0 1 8 11.75 z"/>
</svg>
