<svg xmlns="http://www.w3.org/2000/svg" width="24" height="24" version="1.1">
 <defs>
  <style id="current-color-scheme" type="text/css">
   .ColorScheme-Text { color:#666666; } .ColorScheme-Highlight { color:#4285f4; }
  </style>
 </defs>
 <g transform="translate(4,4)">
  <path style="fill:currentColor" class="ColorScheme-Text" d="M 3,0 V 5 H 1 V 7 H 15 V 5 H 13 V 0 H 9 V 5 H 7 V 0 Z M 3,9 V 14 H 1 V 16 H 15 V 14 H 13 V 9 H 9 V 14 H 7 V 9 Z"/>
 </g>
</svg>
