<svg xmlns="http://www.w3.org/2000/svg" width="24" height="24" version="1.1">
 <defs>
  <style id="current-color-scheme" type="text/css">
   .ColorScheme-Text { color:#666666; } .ColorScheme-Highlight { color:#4285f4; }
  </style>
 </defs>
 <g transform="matrix(1,0,0,1,4,4)">
  <circle class="ColorScheme-Text" cx="8" cy="2" r="2" style="fill:currentColor"/>
  <path class="ColorScheme-Text" d="M 7,16 V 9 L 3.5,12.5 2,11 8,5 14,11 12.5,12.5 9,9 V 16 Z" style="fill:currentColor"/>
 </g>
</svg>
