<svg xmlns="http://www.w3.org/2000/svg" width="24" height="24" version="1.1">
 <defs>
  <style id="current-color-scheme" type="text/css">
   .ColorScheme-Text { color:#666666; } .ColorScheme-Highlight { color:#4285f4; }
  </style>
 </defs>
 <g transform="matrix(1,0,0,1,4,4)">
  <path class="ColorScheme-Text" d="M 7,14 V 6 L 3.5,9.5 2,8 8,2 14,8 12.5,9.5 9,6 V 14 Z" style="fill:currentColor"/>
 </g>
</svg>
