<svg xmlns="http://www.w3.org/2000/svg" width="24" height="24" version="1.1">
 <defs>
  <style id="current-color-scheme" type="text/css">
   .ColorScheme-Text { color:#666666; } .ColorScheme-Highlight { color:#4285f4; }
  </style>
 </defs>
 <g transform="translate(4,4)">
  <path style="fill:currentColor" class="ColorScheme-Text" d="M 15,4 A 3,3 0 0 1 12,7 3,3 0 0 1 9,4 3,3 0 0 1 12,1 3,3 0 0 1 15,4 Z M 8,1 C 4.134,1 1,4.134 1,8 1,11.866 4.134,15 8,15 9.9269,14.998 11.679,14.211 12.947,12.947 L 15,15 V 9 H 9 L 11.52,11.516 C 10.619,12.425 9.3816,13 8,13 5.2386,13 3,10.761 3,8 3,5.2386 5.2386,3 8,3 Z"/>
 </g>
</svg>
