<svg xmlns="http://www.w3.org/2000/svg" width="24" height="24" version="1.1">
 <defs>
  <style id="current-color-scheme" type="text/css">
   .ColorScheme-Text { color:#666666; } .ColorScheme-Highlight { color:#4285f4; }
  </style>
 </defs>
 <g transform="translate(4,4)">
  <path style="fill:currentColor" class="ColorScheme-Text" d="M 13,2 C 9.4167,2 6.6393,2.9036 4.7715,4.7715 2.9036,6.6393 2,9.4167 2,13 H 3 C 3,9.5833 3.8464,7.1107 5.4785,5.4785 7.1107,3.8464 9.5833,3 13,3 Z"/>
  <path style="fill:currentColor" class="ColorScheme-Text" d="M 0,11 H 5 V 16 H 0 Z M 11,0 H 16 V 5 H 11 Z"/>
 </g>
</svg>
