<svg xmlns="http://www.w3.org/2000/svg" width="24" height="24" version="1.1">
 <defs>
  <style id="current-color-scheme" type="text/css">
   .ColorScheme-Text { color:#666666; } .ColorScheme-Highlight { color:#4285f4; }
  </style>
 </defs>
 <g transform="translate(4,4)">
  <path style="fill:currentColor" class="ColorScheme-Text" d="M 7,0 V 5 H 9 V 0 Z M 4,1 V 4 H 6 V 1 Z M 10,1 V 4 H 12 V 1 Z M 1,3 V 6 H 3 V 3 Z M 13,3 V 6 H 15 V 3 Z M 4,5 V 7 H 6 V 5 Z M 10,5 V 7 H 12 V 5 Z M 7,6 V 8 H 9 V 6 Z M 1,7 V 9 H 3 V 7 Z M 13,7 V 9 H 15 V 7 Z M 4,8 V 10 H 6 V 8 Z M 10,8 V 10 H 12 V 8 Z M 7,9 V 11 H 9 V 9 Z M 1,10 V 12 H 3 V 10 Z M 13,10 V 12 H 15 V 10 Z M 4,11 V 13 H 6 V 11 Z M 10,11 V 13 H 12 V 11 Z M 1,13 V 15 H 3 V 13 Z M 13,13 V 15 H 15 V 13 Z"/>
 </g>
</svg>
