<svg xmlns="http://www.w3.org/2000/svg" width="24" height="24" version="1.1">
 <defs>
  <style id="current-color-scheme" type="text/css">
   .ColorScheme-Text { color:#666666; } .ColorScheme-Highlight { color:#4285f4; }
  </style>
 </defs>
 <g transform="translate(4,4)">
  <path style="opacity:0.3;fill:currentColor" class="ColorScheme-Text" d="M 0,9 V 11 C 2.77,11 5,13.23 5,16 H 7 C 7,12.122 3.878,9 0,9 Z"/>
  <path style="fill:currentColor" class="ColorScheme-Text" d="M 0,0 V 2 C 7.756,2 14,8.244 14,16 H 16 C 16,7.136 8.864,0 0,0 Z M 9,7 V 13 L 3,7 Z"/>
 </g>
</svg>
