<svg xmlns="http://www.w3.org/2000/svg" width="24" height="24" version="1.1" viewBox="0 0 24 24">
 <defs>
  <style id="current-color-scheme" type="text/css">
   .ColorScheme-Text { color:#666666; } .ColorScheme-Highlight { color:#4285f4; }
  </style>
 </defs>
 <path style="fill:currentColor" class="ColorScheme-Text" d="m 12,4 a 8,8 0 0 0 -8,8 8,8 0 0 0 8,8 8,8 0 0 0 8,-8 8,8 0 0 0 -8,-8 z M 9.171875,7.7578125 12,10.585938 14.828125,7.7578125 16.242188,9.171875 13.414063,12 16.242188,14.828125 14.828125,16.242188 12,13.414063 9.171875,16.242188 7.7578125,14.828125 10.585938,12 7.7578125,9.171875 Z"/>
</svg>
