<svg xmlns="http://www.w3.org/2000/svg" width="24" height="24" version="1.1">
 <defs>
  <style id="current-color-scheme" type="text/css">
   .ColorScheme-Text { color:#666666; } .ColorScheme-Highlight { color:#4285f4; }
  </style>
 </defs>
 <path style="opacity:0.3;fill:currentColor" class="ColorScheme-Text" d="M 1,3 V 10 H 9 V 3 Z M 15,3 V 10 H 23 V 3 Z"/>
 <path style="fill:currentColor" class="ColorScheme-Text" d="M 14.5,2 C 14,2 14,2.5 14,2.5 V 10.5 C 14,11 14.5,11 14.5,11 H 23.5 C 24,11 24,10.5 24,10.5 V 2.5 C 24,2 23.5,2 23.5,2 Z M 15,3 H 23 V 10 H 15 Z M 0.5,2 C 0,2 0,2.5 0,2.5 V 10.5 C 0,11 0.5,11 0.5,11 H 9.5 C 10,11 10,10.5 10,10.5 V 2.5 C 10,2 9.5,2 9.5,2 Z M 1,3 H 9 V 10 H 1 Z M 17,13 V 15 H 5 V 16 H 17 V 18 L 20,15.5 Z"/>
</svg>
