<svg width="24" height="24" version="1.1" xmlns="http://www.w3.org/2000/svg">
<defs>
<style id="current-color-scheme" type="text/css">.ColorScheme-Text { color:#666666; } .ColorScheme-Highlight { color:#4285f4; }</style>
</defs>
<path class="ColorScheme-Text" d="m7 5c-2 0-2 2-2 2v12h14v-12s0-2-2-2zm0 2h10v10h-10z" fill="currentColor"/>
<path class="ColorScheme-Highlight" d="m11 11v2h2v-2zm3 0v2h2v-2z" fill="#f44336"/>
</svg>
