<svg width="24" height="24" version="1.1" xmlns="http://www.w3.org/2000/svg">
<defs>
<style id="current-color-scheme" type="text/css">.ColorScheme-Text { color:#444444; } .ColorScheme-Highlight { color:#4285f4; } .ColorScheme-NeutralText { color:#ff9800; } .ColorScheme-PositiveText { color:#4caf50; } .ColorScheme-NegativeText { color:#f44336; }</style>
</defs>
<path class="ColorScheme-Text" d="m5 6c-0.554 0-1 0.446-1 1v1h16v-1c0-0.554-0.446-1-1-1zm-1 4v6c0 0.554 0.446 1 1 1h14c0.554 0 1-0.446 1-1v-6zm1 5h4v1h-4zm5 0h2v1h-2z" fill="#666" opacity=".3"/>
</svg>
