<svg width="24" height="24" version="1.1" xmlns="http://www.w3.org/2000/svg">
<defs>
<style id="current-color-scheme" type="text/css">.ColorScheme-Text { color:#444444; } .ColorScheme-Highlight { color:#4285f4; } .ColorScheme-NeutralText { color:#ff9800; } .ColorScheme-PositiveText { color:#4caf50; } .ColorScheme-NegativeText { color:#f44336; }</style>
</defs>
<path class="ColorScheme-Text" d="m11.5 6a2.5 2.5 0 0 0-2.5 2.5 2.5 2.5 0 0 0 0.054688 0.5h4.8945a2.5 2.5 0 0 0 0.050781-0.5 2.5 2.5 0 0 0-2.5-2.5zm5.5 2a2 2 0 0 0-2 2h-4a4 4 0 0 0-3.8691 3h-1.0391c-0.83066-0.0093-1.0497-0.35871-1.0859-0.58594-0.01818-0.11386 0.010504-0.20913 0.072266-0.28125 0.061762-0.07212 0.16093-0.13876 0.38086-0.14062a0.50005 0.50005 0 1 0-0.00781-1c-0.46176 0.0039-0.87363 0.18756-1.1328 0.49023-0.25918 0.30267-0.36218 0.70531-0.30078 1.0898 0.1228 0.76906 0.90547 1.4168 2.0703 1.4277a0.50005 0.50005 0 0 0 0.00391 0h0.9082a4 4 0 0 0 3 3.8691v1.1309h2v-1h2v1h2v-1.1328a4 4 0 0 0 2.459-1.8672h1.541v-3h-1.1328a4 4 0 0 0-1.8672-2.459zm-0.5 4a0.5 0.5 0 0 1 0.5 0.5 0.5 0.5 0 0 1-0.5 0.5 0.5 0.5 0 0 1-0.5-0.5 0.5 0.5 0 0 1 0.5-0.5z" fill="#666"/>
</svg>
